…
```r
#arrange our output in ascending orders
data_aov %>%
        arrange(aov_per_shop)
```

```
## # A tibble: 100 x 2
##    shop_id aov_per_shop
##    <chr>          <dbl>
##  1 92                90
##  2 2                 94
##  3 32               101
##  4 100              111
##  5 53               112
##  6 7                112
##  7 93               114
##  8 14               116
##  9 48               117
## 10 56               117
## # … with 90 more rows
```

This showed no extreme values.


```r
#Arrange our output in descending orders
data_aov %>%
        arrange(desc(aov_per_shop))
```

```
## # A tibble: 100 x 2
##    shop_id aov_per_shop
##    <chr>          <dbl>
##  1 78             25725
##  2 42               352
##  3 12               201
##  4 89               196
##  5 99               195
##  6 50               193
##  7 38               190
##  8 51               187
##  9 6                187
## 10 11               184
## # … with 90 more rows
```
…
```r
data_aov %>%
        arrange(aov_per_shop)
```

```
## # A tibble: 100 x 2
##    shop_id aov_per_shop
##    <chr>          <dbl>
##  1 92                90
##  2 2                 94
##  3 32               101
##  4 100              111
##  5 53               112
##  6 7                112
##  7 93               114
##  8 14               116
##  9 48               117
## 10 56               117
## # … with 90 more rows
```
…
